.label move_starter=$8060
.label starter_start=$806e
.label loop1=$8062
.label main_file_end=$b96d
.label starter_end=$808b
.label loop=$8072
.label launcher=$8009
.label dst=$8075
.label exomized_data=$808b
.label src=$8072
.label screen_001=$b19d
